…
## DIFERENCIANDO OS DADOS PARA QUE SE POSSA OBTER A ESTACIONARIEDADE

``` r
#DATAFRAME PARA RECEBER OS DADOS DIFERENCIADOS 
dadosNovosDiferenciados  <- dadosMensais %>%
  mutate(
    dadosDiferenciadosReais = c(NA,diff(mediaMensalReais)),
    dadosDiferenciadosDolar = c(NA,diff(mediaMensalDolar))
    
  )
dadosNovosDiferenciados
```

    ## # A tibble: 152 × 5
    ##    mediaMensalReais mediaMensalDolar data       dadosDiferenciadosReais
    ##               <dbl>            <dbl> <date>                       <dbl>
    ##  1             32.0             18.0 2010-01-01                  NA    
    ##  2             30.4             16.5 2010-02-01                  -1.62 
    ##  3             27.4             15.3 2010-03-01                  -3.04 
    ##  4             28.0             15.9 2010-04-01                   0.654
    ##  5             28.2             15.5 2010-05-01                   0.125
    ##  6             26.7             14.8 2010-06-01                  -1.44 
    ##  7             26.9             15.2 2010-07-01                   0.208
    ##  8             27.4             15.6 2010-08-01                   0.473
    ##  9             26.5             15.4 2010-09-01                  -0.872
    ## 10             25.7             15.2 2010-10-01                  -0.858
    ## # ℹ 142 more rows
    ## # ℹ 1 more variable: dadosDiferenciadosDolar <dbl>

``` r
##REMOÇÃO DA PRIMEIRA LINHA DEPOIS DA DIFERENCIAÇÃO PARA MANTER OS DADOS NORMAIS
dadosNovosDiferenciadosSemNA <- dadosNovosDiferenciados[-1,]
print(dadosNovosDiferenciadosSemNA)
```

    ## # A tibble: 151 × 5
    ##    mediaMensalReais mediaMensalDolar data       dadosDiferenciadosReais
    ##               <dbl>            <dbl> <date>                       <dbl>
    ##  1             30.4             16.5 2010-02-01                 -1.62  
    ##  2             27.4             15.3 2010-03-01                 -3.04  
    ##  3             28.0             15.9 2010-04-01                  0.654 
    ##  4             28.2             15.5 2010-05-01                  0.125 
    ##  5             26.7             14.8 2010-06-01                 -1.44  
    ##  6             26.9             15.2 2010-07-01                  0.208 
    ##  7             27.4             15.6 2010-08-01                  0.473 
    ##  8             26.5             15.4 2010-09-01                 -0.872 
    ##  9             25.7             15.2 2010-10-01                 -0.858 
    ## 10             25.6             14.9 2010-11-01                 -0.0465
    ## # ℹ 141 more rows
    ## # ℹ 1 more variable: dadosDiferenciadosDolar <dbl>
…
